INDEX VERSION 1.127+/home/suugii/Documents/coordinate/differential_robot/src/java/.metadata/.plugins/org.eclipse.jdt.core
2982035129.index
742522455.index
2484256033.index
1594742553.index
46282419.index
3214207201.index
3721837726.index
2630498905.index
2841451250.index
3888198363.index
120211678.index
527624335.index
2233963263.index
1913109094.index
1932949083.index
3885805113.index
2771403403.index
2066489604.index
